Calculate Mahalanobis Distance — tidy_mahalanobis • joeyr
…
    Value

    A vector that contains the Mahalanobis distances for each observation.

    Examples

require(dplyr)

# Create some artificial vowel data
tibble(F1 = rnorm(50, 0, 1),
       F2 = rnorm(50, 0, 1)) %>%
 # Calculate the Mahalanobis distance
 mutate(mahal_dist = tidy_mahalanobis(F1, F2))

#> # A tibble: 50 x 3
#>         F1       F2 mahal_dist
#>      <dbl>    <dbl>      <dbl>
#>  1  0.110  -0.685        0.366
#>  2  0.853   0.337        0.825
#>  3 -0.234  -0.412        0.284
#>  4  2.09    0.934        6.08 
#>  5 -0.111   1.84         4.94 
#>  6 -1.39   -0.705        3.78 
#>  7 -1.14    0.00851      2.90 
#>  8  1.70    2.03         7.20 
#>  9 -0.0801 -1.34         1.67 
#> 10 -0.437   1.16         2.97 
#> # … with 40 more rows
…
