Detect outliers — find_outliers • joeyr
…
    Examples

suppressPackageStartupMessages(library(dplyr))
df <- joeysvowels::coronals

# You can output the data to a column called something like "is_outlier" and 
# then filter out values that are TRUE.
df %>%
   group_by(vowel) %>%
   mutate(is_outlier = find_outliers(F1, F2, keep = 0.95)) %>%
   filter(!is_outlier)

#> # A tibble: 13,731 x 14
#> # Groups:   vowel [13]
#>    vowel_id start   end     t percent    F1    F2    F3    F4 word  pre   vowel
#>       <dbl> <dbl> <dbl> <dbl>   <dbl> <dbl> <dbl> <dbl> <dbl> <chr> <chr> <fct>
#>  1        1  2.06  2.41  2.06       0  387. 1701. 2629. 3164. snoʊz sn    GOAT 
#>  2        1  2.06  2.41  2.07       5  483. 1591. 2454. 3310. snoʊz sn    GOAT 
#>  3        1  2.06  2.41  2.09      10  525. 1466. 2526. 3343. snoʊz sn    GOAT 
#>  4        1  2.06  2.41  2.13      20  530. 1297  2616. 3330  snoʊz sn    GOAT 
#>  5        1  2.06  2.41  2.14      25  497. 1223. 2562. 3280. snoʊz sn    GOAT 
#>  6        1  2.06  2.41  2.16      30  461. 1172. 2559. 3252  snoʊz sn    GOAT 
#>  7        1  2.06  2.41  2.18      35  414. 1120  2625. 3247. snoʊz sn    GOAT 
#>  8        1  2.06  2.41  2.20      40  423  1072. 2655. 3175. snoʊz sn    GOAT 
#>  9        1  2.06  2.41  2.22      45  396. 1074  2623. 3248. snoʊz sn    GOAT 
#> 10        1  2.06  2.41  2.23      50  368. 1018. 2602. 3168. snoʊz sn    GOAT 
#> # … with 13,721 more rows, and 2 more variables: fol <chr>, is_outlier <lgl>

# Alternatively, you can skip a step and just keep the data that are not 
# outliers.
df %>%
   group_by(vowel) %>%
   filter(!find_outliers(F1, F2))

#> # A tibble: 13,731 x 13
#> # Groups:   vowel [13]
#>    vowel_id start   end     t percent    F1    F2    F3    F4 word  pre   vowel
#>       <dbl> <dbl> <dbl> <dbl>   <dbl> <dbl> <dbl> <dbl> <dbl> <chr> <chr> <fct>
#>  1        1  2.06  2.41  2.06       0  387. 1701. 2629. 3164. snoʊz sn    GOAT 
#>  2        1  2.06  2.41  2.07       5  483. 1591. 2454. 3310. snoʊz sn    GOAT 
#>  3        1  2.06  2.41  2.09      10  525. 1466. 2526. 3343. snoʊz sn    GOAT 
#>  4        1  2.06  2.41  2.13      20  530. 1297  2616. 3330  snoʊz sn    GOAT 
#>  5        1  2.06  2.41  2.14      25  497. 1223. 2562. 3280. snoʊz sn    GOAT 
#>  6        1  2.06  2.41  2.16      30  461. 1172. 2559. 3252  snoʊz sn    GOAT 
#>  7        1  2.06  2.41  2.18      35  414. 1120  2625. 3247. snoʊz sn    GOAT 
#>  8        1  2.06  2.41  2.20      40  423  1072. 2655. 3175. snoʊz sn    GOAT 
#>  9        1  2.06  2.41  2.22      45  396. 1074  2623. 3248. snoʊz sn    GOAT 
#> 10        1  2.06  2.41  2.23      50  368. 1018. 2602. 3168. snoʊz sn    GOAT 
#> # … with 13,721 more rows, and 1 more variable: fol <chr>
   
# In some cases, you might not have enough data. In this case, a warning 
# message will appear.
df %>% 
    filter(percent == 50) %>%
    group_by(vowel) %>%
    mutate(is_outlier = find_outliers(F1, F2, keep = 0.95))

#> With only 19 tokens, there are not enough tokens to determine outliers.
#> # A tibble: 779 x 14
#> # Groups:   vowel [13]
#>    vowel_id start   end     t percent    F1    F2    F3    F4 word  pre   vowel 
#>       <dbl> <dbl> <dbl> <dbl>   <dbl> <dbl> <dbl> <dbl> <dbl> <chr> <chr> <fct> 
#>  1        1  2.06  2.41  2.23      50  368. 1018. 2602. 3168. snoʊz sn    GOAT  
#>  2        2  3     3.36  3.18      50  377. 2032. 2761. 3408. deɪz  d     FACE  
#>  3        3  3.99  4.35  4.17      50  429. 1004. 2625. 3226. zɔɪd  z     CHOICE
#>  4        4  4.94  5.19  5.07      50  314. 2179. 2915. 3380. teɪd  t     FACE  
#>  5        5  5.91  6.17  6.04      50  274. 1378. 2235. 3270. zudz  z     GOOSE 
#>  6        7  8.13  8.4   8.26      50  350. 1624. 2485. 3384. stʊz  st    FOOT  
#>  7        8  9.16  9.41  9.28      50  313. 2181. 2863. 3205. heɪdz h     FACE  
#>  8        9 10.5  10.8  10.6       50  255. 1333. 2313. 3212. zuz   z     GOOSE 
#>  9       10 11.6  11.9  11.8       50  585   969. 2813. 3405  zɔd   z     THOUG…
#> 10       11 12.6  13.1  12.8       50  527. 1201. 2733. 3434. sɔz   s     THOUG…
#> # … with 769 more rows, and 2 more variables: fol <chr>, is_outlier <lgl>
…
