Get centroids — get_centroids • joeyr
…
# For column selection, any tidyselect output works, such as matches().
df %>%
  get_centroids(matches("F\\d"), speaker, vowel)
#> # A tibble: 110 × 6
#>    speaker vowel    F1    F2    F3    F4
#>    <fct>   <chr> <dbl> <dbl> <dbl> <dbl>
#>  1 01      AA     722. 1381. 1974. 3197.
#>  2 01      AE     675. 2058. 2569. 3389.
#>  3 01      AH     650. 1814. 2389. 3639.
#>  4 01      AO     536.  857. 2329. 3606.
#>  5 01      EH     653. 1884. 2409. 3621.
#>  6 01      EY     498. 2281. 2905. 3735.
#>  7 01      IH     517. 2154. 2788. 3783.
#>  8 01      IY     352. 2784. 3015. 4152.
#>  9 01      OW     566. 1405. 2562. 3713.
#> 10 01      UH     533. 1690. 2524. 3745.
#> # ℹ 100 more rows

# For functions, you can add more than one. Just wrap them up into c().
df %>%
  get_centroids(c(F1, F2), .fns = c(median, mean), speaker, vowel)
#> # A tibble: 110 × 6
#>    speaker vowel  F1_1  F1_2  F2_1  F2_2
#>    <fct>   <chr> <dbl> <dbl> <dbl> <dbl>
#>  1 01      AA     722.  731. 1381. 1405.
#>  2 01      AE     675.  644. 2058. 2033.
#>  3 01      AH     650.  654. 1814. 1805.
#>  4 01      AO     536.  582.  857.  922.
#>  5 01      EH     653.  635. 1884. 1937.
#>  6 01      EY     498.  483. 2281. 2265.
#>  7 01      IH     517.  513. 2154. 2147.
#>  8 01      IY     352.  350. 2784. 2713.
#>  9 01      OW     566.  564. 1405. 1353.
#> 10 01      UH     533.  530. 1690. 1615.
#> # ℹ 100 more rows

# However, unless they are named, they won't be useful.
df %>%
  get_centroids(c(F1, F2), .fns = c(`med` = median, `average` = mean), speaker, vowel)
#> # A tibble: 110 × 6
#>    speaker vowel F1_med F1_average F2_med F2_average
#>    <fct>   <chr>  <dbl>      <dbl>  <dbl>      <dbl>
#>  1 01      AA      722.       731.  1381.      1405.
#>  2 01      AE      675.       644.  2058.      2033.
#>  3 01      AH      650.       654.  1814.      1805.
#>  4 01      AO      536.       582.   857.       922.
#>  5 01      EH      653.       635.  1884.      1937.
#>  6 01      EY      498.       483.  2281.      2265.
#>  7 01      IH      517.       513.  2154.      2147.
#>  8 01      IY      352.       350.  2784.      2713.
#>  9 01      OW      566.       564.  1405.      1353.
#> 10 01      UH      533.       530.  1690.      1615.
#> # ℹ 100 more rows
…
