ANAE Vowel Normalization — norm_anae • joeyr
…
    Examples

library(tidyverse)
df <- joeysvowels::idahoans

# Run the function. Since this data doesn't have a column for token ids, I'll create one here.
df %>%
   rowid_to_column("token_id") %>%
   group_by(speaker) %>%
   norm_anae(hz_cols = c(F1, F2), vowel_id = token_id, speaker_id = speaker) %>%
   ungroup() %>%
   select(F1, F2, F1_anae, F2_anae) # <- just the relevant columns

#> # A tibble: 1,100 x 4
#>       F1    F2 F1_anae F2_anae
#>    <dbl> <dbl>   <dbl>   <dbl>
#>  1  699. 1655.    714.   1690.
#>  2  685. 1360.    700.   1388.
#>  3  713. 1507.    728.   1539.
#>  4  801. 1143.    818.   1167.
#>  5  757. 1258.    772.   1284.
#>  6  804. 1403.    821.   1432.
#>  7  664. 1279.    678.   1306.
#>  8  757. 1325.    773.   1353.
#>  9  730. 1578.    746.   1611.
#> 10  700. 1546.    715.   1578.
#> # … with 1,090 more rows
…
